{
    "name": "Machine",
    "fields": [
        {
            "fieldName": "serialNumber",
            "fieldType": "String",
            "fieldValidateRules": [
                "required"
            ]
        },
        {
            "fieldName": "model",
            "fieldType": "String"
        }
    ],
    "relationships": [],
    "changelogDate": "20181122125443",
    "entityTableName": "machine",
    "dto": "mapstruct",
    "pagination": "infinite-scroll",
    "service": "serviceClass",
    "jpaMetamodelFiltering": false,
    "fluentMethods": true,
    "clientRootFolder": "",
    "applications": "*"
}